EESchema Schematic File Version 4
EELAYER 30 0
EELAYER END
$Descr A4 11693 8268
encoding utf-8
Sheet 1 1
Title "Převodník PS/2 na Myš 602"
Date "2021-07-10"
Rev ""
Comp ""
Comment1 ""
Comment2 ""
Comment3 ""
Comment4 ""
$EndDescr
$Comp
L MCU_Microchip_ATtiny:ATtiny2313A-PU U1
U 1 1 60E886E5
P 4700 3550
F 0 "U1" H 4650 3650 50  0000 C CNN
F 1 "ATtiny2313A-PU" H 4650 3550 50  0000 C CNN
F 2 "Package_DIP:DIP-20_W7.62mm_Socket" H 4700 3550 50  0001 C CIN
F 3 "http://ww1.microchip.com/downloads/en/DeviceDoc/doc8246.pdf" H 4700 3550 50  0001 C CNN
	1    4700 3550
	1    0    0    -1  
$EndComp
$Comp
L Device:R_Small R1
U 1 1 60E8987F
P 5800 2750
F 0 "R1" V 5800 2750 50  0000 C CNN
F 1 "1k" V 5750 2900 50  0000 C CNN
F 2 "Resistor_THT:R_Axial_DIN0204_L3.6mm_D1.6mm_P2.54mm_Vertical" H 5800 2750 50  0001 C CNN
F 3 "~" H 5800 2750 50  0001 C CNN
	1    5800 2750
	0    1    1    0   
$EndComp
$Comp
L Device:R_Small R2
U 1 1 60E8A8BA
P 5800 2850
F 0 "R2" V 5800 2850 50  0000 C CNN
F 1 "1k" V 5750 3000 50  0000 C CNN
F 2 "Resistor_THT:R_Axial_DIN0204_L3.6mm_D1.6mm_P2.54mm_Vertical" H 5800 2850 50  0001 C CNN
F 3 "~" H 5800 2850 50  0001 C CNN
	1    5800 2850
	0    1    1    0   
$EndComp
$Comp
L Device:R_Small R3
U 1 1 60E8AB06
P 5800 2950
F 0 "R3" V 5800 2950 50  0000 C CNN
F 1 "1k" V 5750 3100 50  0000 C CNN
F 2 "Resistor_THT:R_Axial_DIN0204_L3.6mm_D1.6mm_P2.54mm_Vertical" H 5800 2950 50  0001 C CNN
F 3 "~" H 5800 2950 50  0001 C CNN
	1    5800 2950
	0    1    1    0   
$EndComp
$Comp
L Device:R_Small R4
U 1 1 60E8AF74
P 5800 3050
F 0 "R4" V 5800 3050 50  0000 C CNN
F 1 "1k" V 5750 3200 50  0000 C CNN
F 2 "Resistor_THT:R_Axial_DIN0204_L3.6mm_D1.6mm_P2.54mm_Vertical" H 5800 3050 50  0001 C CNN
F 3 "~" H 5800 3050 50  0001 C CNN
	1    5800 3050
	0    1    1    0   
$EndComp
$Comp
L Device:R_Small R5
U 1 1 60E8B25C
P 5800 3150
F 0 "R5" V 5800 3150 50  0000 C CNN
F 1 "1k" V 5750 3300 50  0000 C CNN
F 2 "Resistor_THT:R_Axial_DIN0204_L3.6mm_D1.6mm_P2.54mm_Vertical" H 5800 3150 50  0001 C CNN
F 3 "~" H 5800 3150 50  0001 C CNN
	1    5800 3150
	0    1    1    0   
$EndComp
$Comp
L Device:R_Small R6
U 1 1 60E8B478
P 5800 3250
F 0 "R6" V 5800 3250 50  0000 C CNN
F 1 "1k" V 5750 3400 50  0000 C CNN
F 2 "Resistor_THT:R_Axial_DIN0204_L3.6mm_D1.6mm_P2.54mm_Vertical" H 5800 3250 50  0001 C CNN
F 3 "~" H 5800 3250 50  0001 C CNN
	1    5800 3250
	0    1    1    0   
$EndComp
$Comp
L Device:R_Small R7
U 1 1 60E8B58A
P 5800 3350
F 0 "R7" V 5800 3350 50  0000 C CNN
F 1 "1k" V 5750 3500 50  0000 C CNN
F 2 "Resistor_THT:R_Axial_DIN0204_L3.6mm_D1.6mm_P2.54mm_Vertical" H 5800 3350 50  0001 C CNN
F 3 "~" H 5800 3350 50  0001 C CNN
	1    5800 3350
	0    1    1    0   
$EndComp
$Comp
L Device:R_Small R8
U 1 1 60E8B6D6
P 5800 3450
F 0 "R8" V 5800 3450 50  0000 C CNN
F 1 "1k" V 5750 3600 50  0000 C CNN
F 2 "Resistor_THT:R_Axial_DIN0204_L3.6mm_D1.6mm_P2.54mm_Vertical" H 5800 3450 50  0001 C CNN
F 3 "~" H 5800 3450 50  0001 C CNN
	1    5800 3450
	0    1    1    0   
$EndComp
Text Label 6050 2750 0    50   ~ 0
DB5
Text Label 6050 2850 0    50   ~ 0
DB6
Text Label 6050 2950 0    50   ~ 0
DB7
Text Label 6050 3050 0    50   ~ 0
DB3
Text Label 6050 3150 0    50   ~ 0
DB1
Text Label 6050 3250 0    50   ~ 0
DB2
Text Label 6050 3350 0    50   ~ 0
DB0
Text Label 6050 3450 0    50   ~ 0
DB4
$Comp
L power:GND #PWR0101
U 1 1 60E8BF35
P 4700 4650
F 0 "#PWR0101" H 4700 4400 50  0001 C CNN
F 1 "GND" H 4705 4477 50  0000 C CNN
F 2 "" H 4700 4650 50  0001 C CNN
F 3 "" H 4700 4650 50  0001 C CNN
	1    4700 4650
	1    0    0    -1  
$EndComp
$Comp
L power:GND #PWR0102
U 1 1 60E91398
P 7050 3950
F 0 "#PWR0102" H 7050 3700 50  0001 C CNN
F 1 "GND" H 7055 3777 50  0000 C CNN
F 2 "" H 7050 3950 50  0001 C CNN
F 3 "" H 7050 3950 50  0001 C CNN
	1    7050 3950
	1    0    0    -1  
$EndComp
$Comp
L power:VCC #PWR0103
U 1 1 60E91C11
P 7700 3750
F 0 "#PWR0103" H 7700 3600 50  0001 C CNN
F 1 "VCC" V 7715 3877 50  0000 L CNN
F 2 "" H 7700 3750 50  0001 C CNN
F 3 "" H 7700 3750 50  0001 C CNN
	1    7700 3750
	0    1    1    0   
$EndComp
NoConn ~ 7700 3850
NoConn ~ 7700 3650
$Comp
L power:VCC #PWR0104
U 1 1 60E968CB
P 4700 2450
F 0 "#PWR0104" H 4700 2300 50  0001 C CNN
F 1 "VCC" H 4715 2623 50  0000 C CNN
F 2 "" H 4700 2450 50  0001 C CNN
F 3 "" H 4700 2450 50  0001 C CNN
	1    4700 2450
	1    0    0    -1  
$EndComp
$Comp
L Device:R_Small R11
U 1 1 60E97653
P 6950 3350
F 0 "R11" V 6950 3350 50  0000 C CNN
F 1 "10k" V 7050 3350 50  0000 C CNN
F 2 "Resistor_THT:R_Axial_DIN0204_L3.6mm_D1.6mm_P5.08mm_Horizontal" H 6950 3350 50  0001 C CNN
F 3 "~" H 6950 3350 50  0001 C CNN
	1    6950 3350
	1    0    0    -1  
$EndComp
$Comp
L Device:R_Small R10
U 1 1 60E9811B
P 6750 3350
F 0 "R10" V 6750 3350 50  0000 C CNN
F 1 "10k" V 6850 3350 50  0000 C CNN
F 2 "Resistor_THT:R_Axial_DIN0204_L3.6mm_D1.6mm_P5.08mm_Horizontal" H 6750 3350 50  0001 C CNN
F 3 "~" H 6750 3350 50  0001 C CNN
	1    6750 3350
	1    0    0    -1  
$EndComp
Wire Wire Line
	6950 3850 6950 3450
Wire Wire Line
	7100 3850 6950 3850
Wire Wire Line
	7100 3650 6750 3650
Wire Wire Line
	6750 3650 6750 3450
$Comp
L power:VCC #PWR0105
U 1 1 60E99DB9
P 6850 3200
F 0 "#PWR0105" H 6850 3050 50  0001 C CNN
F 1 "VCC" H 6865 3373 50  0000 C CNN
F 2 "" H 6850 3200 50  0001 C CNN
F 3 "" H 6850 3200 50  0001 C CNN
	1    6850 3200
	1    0    0    -1  
$EndComp
Wire Wire Line
	6850 3200 6950 3200
Connection ~ 6950 3850
Connection ~ 6750 3650
Text Label 6700 3850 2    50   ~ 0
CLOCK
Text Label 6650 3650 2    50   ~ 0
DATA
Wire Wire Line
	5300 3650 6750 3650
Wire Wire Line
	5300 3850 6950 3850
Wire Wire Line
	6750 3250 6750 3200
Wire Wire Line
	6750 3200 6850 3200
Connection ~ 6850 3200
Wire Wire Line
	6950 3200 6950 3250
$Comp
L Device:R_Small R9
U 1 1 60EADA66
P 3800 3250
F 0 "R9" V 3800 3250 50  0000 C CNN
F 1 "1k" V 3900 3250 50  0000 C CNN
F 2 "Resistor_THT:R_Axial_DIN0204_L3.6mm_D1.6mm_P5.08mm_Horizontal" H 3800 3250 50  0001 C CNN
F 3 "~" H 3800 3250 50  0001 C CNN
	1    3800 3250
	-1   0    0    1   
$EndComp
$Comp
L Device:LED D1
U 1 1 60EAE386
P 3800 3500
F 0 "D1" V 3839 3382 50  0000 R CNN
F 1 "LED" V 3748 3382 50  0000 R CNN
F 2 "LED_THT:LED_D5.0mm_Horizontal_O3.81mm_Z3.0mm" H 3800 3500 50  0001 C CNN
F 3 "~" H 3800 3500 50  0001 C CNN
	1    3800 3500
	0    -1   -1   0   
$EndComp
$Comp
L power:GND #PWR0106
U 1 1 60EAF5C9
P 3800 3650
F 0 "#PWR0106" H 3800 3400 50  0001 C CNN
F 1 "GND" H 3805 3477 50  0000 C CNN
F 2 "" H 3800 3650 50  0001 C CNN
F 3 "" H 3800 3650 50  0001 C CNN
	1    3800 3650
	1    0    0    -1  
$EndComp
$Comp
L Device:C C1
U 1 1 60EB0285
P 6750 2500
F 0 "C1" H 6865 2546 50  0000 L CNN
F 1 "100n" H 6865 2455 50  0000 L CNN
F 2 "Capacitor_THT:C_Disc_D3.8mm_W2.6mm_P2.50mm" H 6788 2350 50  0001 C CNN
F 3 "~" H 6750 2500 50  0001 C CNN
	1    6750 2500
	1    0    0    -1  
$EndComp
$Comp
L Device:CP C2
U 1 1 60EB0CBE
P 7200 2500
F 0 "C2" H 7318 2546 50  0000 L CNN
F 1 "100u" H 7318 2455 50  0000 L CNN
F 2 "Capacitor_THT:CP_Radial_D5.0mm_P2.50mm" H 7238 2350 50  0001 C CNN
F 3 "~" H 7200 2500 50  0001 C CNN
	1    7200 2500
	1    0    0    -1  
$EndComp
$Comp
L power:GND #PWR0107
U 1 1 60EB1233
P 6750 2650
F 0 "#PWR0107" H 6750 2400 50  0001 C CNN
F 1 "GND" H 6755 2477 50  0000 C CNN
F 2 "" H 6750 2650 50  0001 C CNN
F 3 "" H 6750 2650 50  0001 C CNN
	1    6750 2650
	1    0    0    -1  
$EndComp
$Comp
L power:VCC #PWR0108
U 1 1 60EB1699
P 6750 2350
F 0 "#PWR0108" H 6750 2200 50  0001 C CNN
F 1 "VCC" H 6765 2523 50  0000 C CNN
F 2 "" H 6750 2350 50  0001 C CNN
F 3 "" H 6750 2350 50  0001 C CNN
	1    6750 2350
	1    0    0    -1  
$EndComp
Wire Wire Line
	7200 2350 6750 2350
Connection ~ 6750 2350
Wire Wire Line
	7200 2650 6750 2650
Connection ~ 6750 2650
Wire Wire Line
	5300 4250 5700 4250
$Comp
L power:GND #PWR0109
U 1 1 60EBEC3F
P 6300 4250
F 0 "#PWR0109" H 6300 4000 50  0001 C CNN
F 1 "GND" H 6305 4077 50  0000 C CNN
F 2 "" H 6300 4250 50  0001 C CNN
F 3 "" H 6300 4250 50  0001 C CNN
	1    6300 4250
	1    0    0    -1  
$EndComp
$Comp
L PMD85:PMD85_K2 K2
U 1 1 60EC694B
P 2550 3650
F 0 "K2" H 2550 4575 50  0000 C CNN
F 1 "PMD85_K2" H 2550 4484 50  0000 C CNN
F 2 "pmd85:PMD85-K2" H 2300 4800 50  0001 C CNN
F 3 "" H 2300 4800 50  0001 C CNN
	1    2550 3650
	1    0    0    -1  
$EndComp
$Comp
L power:VCC #PWR0110
U 1 1 60EC8BD6
P 2200 4350
F 0 "#PWR0110" H 2200 4200 50  0001 C CNN
F 1 "VCC" V 2215 4477 50  0000 L CNN
F 2 "" H 2200 4350 50  0001 C CNN
F 3 "" H 2200 4350 50  0001 C CNN
	1    2200 4350
	0    -1   -1   0   
$EndComp
$Comp
L power:GND #PWR0111
U 1 1 60EC9773
P 2200 2950
F 0 "#PWR0111" H 2200 2700 50  0001 C CNN
F 1 "GND" V 2205 2822 50  0000 R CNN
F 2 "" H 2200 2950 50  0001 C CNN
F 3 "" H 2200 2950 50  0001 C CNN
	1    2200 2950
	0    1    1    0   
$EndComp
Wire Wire Line
	2200 4150 1900 4150
Wire Wire Line
	2200 4250 1900 4250
Text Label 1900 4150 0    50   ~ 0
DB1
Text Label 1900 4250 0    50   ~ 0
DB0
Wire Wire Line
	2900 3750 3150 3750
Wire Wire Line
	2900 3850 3150 3850
Wire Wire Line
	2900 3950 3150 3950
Wire Wire Line
	2900 4050 3150 4050
Wire Wire Line
	2900 4150 3150 4150
Wire Wire Line
	2900 4250 3150 4250
Text Label 3000 3750 0    50   ~ 0
DB5
Text Label 3000 3850 0    50   ~ 0
DB6
Text Label 3000 3950 0    50   ~ 0
DB7
Text Label 3000 4050 0    50   ~ 0
DB3
Text Label 3000 4150 0    50   ~ 0
DB2
Text Label 3000 4250 0    50   ~ 0
DB4
NoConn ~ 2900 4350
NoConn ~ 2200 3050
NoConn ~ 2200 3150
NoConn ~ 2200 3250
NoConn ~ 2200 3350
NoConn ~ 2200 3450
NoConn ~ 2200 3550
NoConn ~ 2200 3650
NoConn ~ 2200 3750
NoConn ~ 2200 3850
NoConn ~ 2200 3950
NoConn ~ 2200 4050
NoConn ~ 2900 2950
NoConn ~ 2900 3050
NoConn ~ 2900 3150
NoConn ~ 2900 3250
NoConn ~ 2900 3350
NoConn ~ 2900 3450
NoConn ~ 2900 3550
NoConn ~ 2900 3650
NoConn ~ 4100 2950
NoConn ~ 5300 3750
$Comp
L PS2:PS2_Connector J2
U 1 1 60E98D46
P 7400 3800
F 0 "J2" H 7400 4025 50  0000 C CNN
F 1 "PS2" H 7400 4116 50  0000 C CNN
F 2 "PS2:PS2_Connector" H 7300 4200 50  0001 C CNN
F 3 "" H 7300 4200 50  0001 C CNN
	1    7400 3800
	-1   0    0    1   
$EndComp
Wire Wire Line
	7050 3950 7050 3750
Wire Wire Line
	7050 3750 7100 3750
Wire Wire Line
	7050 3750 7050 3450
Wire Wire Line
	7050 3450 7400 3450
Connection ~ 7050 3750
$Comp
L Connector_Generic:Conn_01x05 J1
U 1 1 60EA0C57
P 3950 2100
F 0 "J1" H 4030 2142 50  0000 L CNN
F 1 "ISP" H 4030 2051 50  0000 L CNN
F 2 "Connector_PinHeader_2.54mm:PinHeader_1x05_P2.54mm_Vertical" H 3950 2100 50  0001 C CNN
F 3 "~" H 3950 2100 50  0001 C CNN
	1    3950 2100
	1    0    0    -1  
$EndComp
Wire Wire Line
	3750 1900 3450 1900
Wire Wire Line
	3750 2000 3450 2000
Wire Wire Line
	3750 2100 3450 2100
Wire Wire Line
	3750 2300 3450 2300
Text Label 3450 1900 0    50   ~ 0
MISO
Text Label 3450 2000 0    50   ~ 0
SCK
Text Label 3450 2100 0    50   ~ 0
RST
Text Label 3450 2200 0    50   ~ 0
GND
Text Label 3450 2300 0    50   ~ 0
MOSI
Wire Wire Line
	5300 2750 5700 2750
Wire Wire Line
	5300 2850 5700 2850
Wire Wire Line
	5300 2950 5700 2950
Wire Wire Line
	5300 3050 5700 3050
Wire Wire Line
	5300 3150 5700 3150
Wire Wire Line
	5300 3250 5700 3250
Wire Wire Line
	5300 3350 5700 3350
Wire Wire Line
	5300 3450 5700 3450
Wire Wire Line
	5900 2750 6050 2750
Wire Wire Line
	5900 2850 6050 2850
Wire Wire Line
	5900 2950 6050 2950
Wire Wire Line
	5900 3050 6050 3050
Wire Wire Line
	5900 3150 6050 3150
Wire Wire Line
	5900 3250 6050 3250
Wire Wire Line
	5900 3350 6050 3350
Wire Wire Line
	5900 3450 6050 3450
Text Label 5350 3450 0    50   ~ 0
SCK
Text Label 5350 3350 0    50   ~ 0
MISO
Text Label 5350 3250 0    50   ~ 0
MOSI
Wire Wire Line
	4100 2750 3950 2750
Text Label 3950 2750 0    50   ~ 0
RST
$Comp
L power:GND #PWR01
U 1 1 60EC56A2
P 3200 2400
F 0 "#PWR01" H 3200 2150 50  0001 C CNN
F 1 "GND" V 3205 2272 50  0000 R CNN
F 2 "" H 3200 2400 50  0001 C CNN
F 3 "" H 3200 2400 50  0001 C CNN
	1    3200 2400
	1    0    0    -1  
$EndComp
Wire Wire Line
	3200 2400 3200 2200
Wire Wire Line
	3200 2200 3750 2200
NoConn ~ 5300 4050
Wire Wire Line
	3800 3150 4100 3150
$Comp
L Device:Jumper JP1
U 1 1 60EFF53C
P 6000 4250
F 0 "JP1" H 6000 4250 50  0000 C CNN
F 1 "Mode" H 6000 4150 50  0000 C CNN
F 2 "Connector_PinHeader_2.54mm:PinHeader_1x02_P2.54mm_Vertical" H 6000 4250 50  0001 C CNN
F 3 "~" H 6000 4250 50  0001 C CNN
	1    6000 4250
	1    0    0    1   
$EndComp
NoConn ~ 5300 3950
NoConn ~ 5300 4150
$EndSCHEMATC
