(module PMD85-K2 (layer F.Cu) (tedit 60E8AEBE)
  (fp_text reference K2 (at -19.88 0 90) (layer F.SilkS)
    (effects (font (size 1 1) (thickness 0.15)))
  )
  (fp_text value "Aplikační konektor" (at 0 0) (layer F.Fab)
    (effects (font (size 1 1) (thickness 0.15)))
  )
  (fp_line (start -18.63 3.79) (end -18.63 -3.79) (layer F.CrtYd) (width 0.05))
  (fp_line (start 18.63 3.79) (end -18.63 3.79) (layer F.CrtYd) (width 0.05))
  (fp_line (start 18.63 -3.79) (end 18.63 3.79) (layer F.CrtYd) (width 0.05))
  (fp_line (start -18.63 -3.79) (end 18.63 -3.79) (layer F.CrtYd) (width 0.05))
  (fp_line (start -18.88 1.346666) (end -18.88 4.039999) (layer F.SilkS) (width 0.12))
  (fp_line (start -18.52 1.346666) (end -18.88 1.346666) (layer F.SilkS) (width 0.12))
  (fp_line (start -18.52 -1.346666) (end -18.52 1.346666) (layer F.SilkS) (width 0.12))
  (fp_line (start -18.88 -1.346666) (end -18.52 -1.346666) (layer F.SilkS) (width 0.12))
  (fp_line (start -18.88 -4.04) (end -18.88 -1.346666) (layer F.SilkS) (width 0.12))
  (fp_line (start 18.88 -4.039999) (end -18.88 -4.04) (layer F.SilkS) (width 0.12))
  (fp_line (start 18.88 4.04) (end 18.88 -4.039999) (layer F.SilkS) (width 0.12))
  (fp_line (start -18.88 4.039999) (end 18.88 4.04) (layer F.SilkS) (width 0.12))
  (pad 2 thru_hole oval (at -17.78 -2.54) (size 1.2 2) (drill 0.8) (layers *.Cu *.Mask))
  (pad 1 thru_hole oval (at -17.78 2.54) (size 1.2 2) (drill 0.8) (layers *.Cu *.Mask))
  (pad 4 thru_hole oval (at -15.24 -2.54) (size 1.2 2) (drill 0.8) (layers *.Cu *.Mask))
  (pad 3 thru_hole oval (at -15.24 2.54) (size 1.2 2) (drill 0.8) (layers *.Cu *.Mask))
  (pad 6 thru_hole oval (at -12.7 -2.54) (size 1.2 2) (drill 0.8) (layers *.Cu *.Mask))
  (pad 5 thru_hole oval (at -12.7 2.54) (size 1.2 2) (drill 0.8) (layers *.Cu *.Mask))
  (pad 8 thru_hole oval (at -10.16 -2.54) (size 1.2 2) (drill 0.8) (layers *.Cu *.Mask))
  (pad 7 thru_hole oval (at -10.16 2.54) (size 1.2 2) (drill 0.8) (layers *.Cu *.Mask))
  (pad 10 thru_hole oval (at -7.62 -2.54) (size 1.2 2) (drill 0.8) (layers *.Cu *.Mask))
  (pad 9 thru_hole oval (at -7.62 2.54) (size 1.2 2) (drill 0.8) (layers *.Cu *.Mask))
  (pad 12 thru_hole oval (at -5.08 -2.54) (size 1.2 2) (drill 0.8) (layers *.Cu *.Mask))
  (pad 11 thru_hole oval (at -5.08 2.54) (size 1.2 2) (drill 0.8) (layers *.Cu *.Mask))
  (pad 14 thru_hole oval (at -2.54 -2.54) (size 1.2 2) (drill 0.8) (layers *.Cu *.Mask))
  (pad 13 thru_hole oval (at -2.54 2.54) (size 1.2 2) (drill 0.8) (layers *.Cu *.Mask))
  (pad 16 thru_hole oval (at 0 -2.54) (size 1.2 2) (drill 0.8) (layers *.Cu *.Mask))
  (pad 15 thru_hole oval (at 0 2.54) (size 1.2 2) (drill 0.8) (layers *.Cu *.Mask))
  (pad 18 thru_hole oval (at 2.54 -2.54) (size 1.2 2) (drill 0.8) (layers *.Cu *.Mask))
  (pad 17 thru_hole oval (at 2.54 2.54) (size 1.2 2) (drill 0.8) (layers *.Cu *.Mask))
  (pad 20 thru_hole oval (at 5.08 -2.54) (size 1.2 2) (drill 0.8) (layers *.Cu *.Mask))
  (pad 19 thru_hole oval (at 5.08 2.54) (size 1.2 2) (drill 0.8) (layers *.Cu *.Mask))
  (pad 22 thru_hole oval (at 7.62 -2.54) (size 1.2 2) (drill 0.8) (layers *.Cu *.Mask))
  (pad 21 thru_hole oval (at 7.62 2.54) (size 1.2 2) (drill 0.8) (layers *.Cu *.Mask))
  (pad 24 thru_hole oval (at 10.16 -2.54) (size 1.2 2) (drill 0.8) (layers *.Cu *.Mask))
  (pad 23 thru_hole oval (at 10.16 2.54) (size 1.2 2) (drill 0.8) (layers *.Cu *.Mask))
  (pad 26 thru_hole oval (at 12.7 -2.54) (size 1.2 2) (drill 0.8) (layers *.Cu *.Mask))
  (pad 25 thru_hole oval (at 12.7 2.54) (size 1.2 2) (drill 0.8) (layers *.Cu *.Mask))
  (pad 28 thru_hole oval (at 15.24 -2.54) (size 1.2 2) (drill 0.8) (layers *.Cu *.Mask))
  (pad 27 thru_hole oval (at 15.24 2.54) (size 1.2 2) (drill 0.8) (layers *.Cu *.Mask))
  (pad 30 thru_hole oval (at 17.78 -2.54) (size 1.2 2) (drill 0.8) (layers *.Cu *.Mask))
  (pad 29 thru_hole oval (at 17.78 2.54) (size 1.2 2) (drill 0.8) (layers *.Cu *.Mask))
)
